{
    "mongoURI": "mongodb+srv://pamsix:pamsix123@mernapp-r1fre.mongodb.net/reunion?retryWrites=true&w=majority",
    "jwtSecretToken": "uf9a1EiCmJ1qJwG",
    "googleClientID": "112560231194-otihib6eusiu17nrps9i5kom5pjt7udt.apps.googleusercontent.com",
    "googleSecret": "EZ252GHs7Ev6UUAXEL4d1luT",
    "facebookClientID": "859566967810527",
    "facebookSecret": "ec31ed1833bfb28b4e5eaef2e7dd160e",
    "clientDomain" : "https://reunionapp2020.herokuapp.com/",
    "backendDomain" : "https://reunionapp2020.herokuapp.com/"
}